{
  "project_info": {
    "project_number": "179284875483",
    "firebase_url": "https://chinese-shop-8a213.firebaseio.com",
    "project_id": "chinese-shop-8a213",
    "storage_bucket": "chinese-shop-8a213.appspot.com"
  },
  "client": [
    {
      "client_info": {
        "mobilesdk_app_id": "1:179284875483:android:6d0c5723ee20a186",
        "android_client_info": {
          "package_name": "me.grapescan.chineseshop"
        }
      },
      "oauth_client": [
        {
          "client_id": "179284875483-22n9dgg4h7n7ae41dt1qrgeersvqtvdm.apps.googleusercontent.com",
          "client_type": 1,
          "android_info": {
            "package_name": "me.grapescan.chineseshop",
            "certificate_hash": "deb3849c7389daa19620ce08ad834d9d78bba793"
          }
        },
        {
          "client_id": "179284875483-ufta9824fsflnb28lrafj47kr2031slm.apps.googleusercontent.com",
          "client_type": 1,
          "android_info": {
            "package_name": "me.grapescan.chineseshop",
            "certificate_hash": "0f640cc7208ed662216dd6da724314efbe2a0565"
          }
        },
        {
          "client_id": "179284875483-on7kg7n4gt4p0cmjremf62q9fbji2dk6.apps.googleusercontent.com",
          "client_type": 3
        }
      ],
      "api_key": [
        {
          "current_key": "AIzaSyA1C9Ueok_BW_lFEQkkFP29dC-U7G17-rE"
        }
      ],
      "services": {
        "analytics_service": {
          "status": 1
        },
        "appinvite_service": {
          "status": 2,
          "other_platform_oauth_client": [
            {
              "client_id": "179284875483-on7kg7n4gt4p0cmjremf62q9fbji2dk6.apps.googleusercontent.com",
              "client_type": 3
            }
          ]
        },
        "ads_service": {
          "status": 2
        }
      }
    }
  ],
  "configuration_version": "1"
}